<svg xmlns="http://www.w3.org/2000/svg" width="350" height="242.503" viewBox="0 0 350 242.503">
  <g id="undraw_performance_overview_p9bm_1_" data-name="undraw_performance_overview_p9bm (1)" transform="translate(0 0)">
    <path id="Path_387" data-name="Path 387" d="M369.548,574.848H288.489l2.748-31.905H366.8Z" transform="translate(-166.214 -337.397)" fill="#e6e6e6"/>
    <rect id="Rectangle_259" data-name="Rectangle 259" width="90.676" height="7.363" transform="translate(118.154 233.77)" fill="#e6e6e6"/>
    <path id="Path_388" data-name="Path 388" d="M505.17,129.717H195.36c-4.553,0-8.243,3.3-8.243,7.363V305.812h326.3V137.08c0-4.067-3.691-7.363-8.244-7.363Z" transform="translate(-187.117 -129.717)" fill="#3f3d56"/>
    <path id="Path_389" data-name="Path 389" d="M187.117,594.865v27.611c0,4.066,3.691,7.363,8.243,7.363h309.81c4.553,0,8.243-3.3,8.243-7.363V594.865Z" transform="translate(-187.117 -418.771)" fill="#e6e6e6"/>
    <rect id="Rectangle_260" data-name="Rectangle 260" width="294.011" height="147.257" transform="translate(16.486 15.339)" fill="#e6e6e6"/>
    <ellipse id="Ellipse_81" data-name="Ellipse 81" cx="8.243" cy="7.363" rx="8.243" ry="7.363" transform="translate(155.248 185.911)" fill="#3f3d56"/>
    <ellipse id="Ellipse_82" data-name="Ellipse 82" cx="1.564" cy="1.397" rx="1.564" ry="1.397" transform="translate(24.089 18.764)" fill="#fff"/>
    <ellipse id="Ellipse_83" data-name="Ellipse 83" cx="1.564" cy="1.397" rx="1.564" ry="1.397" transform="translate(30.027 18.764)" fill="#fff"/>
    <ellipse id="Ellipse_84" data-name="Ellipse 84" cx="1.564" cy="1.397" rx="1.564" ry="1.397" transform="translate(35.965 18.764)" fill="#fff"/>
    <path id="Path_390" data-name="Path 390" d="M909.734,392.775s2.52,29.257-1.008,30.157-16.126,7.652-36.283,5.851c0,0-19.654,9.452-16.63.45s16.63-6.752,16.63-6.752,24.189-4.5,25.2-7.652-3.024-16.2-1.512-16.654S909.734,392.775,909.734,392.775Z" transform="translate(-572.205 -293.188)" fill="#ffb8b8"/>
    <path id="Path_391" data-name="Path 391" d="M905.734,393.775s2.52,29.257-1.008,30.157-16.126,7.652-36.283,5.851c0,0-19.654,9.452-16.63.45s16.63-6.752,16.63-6.752,24.189-4.5,25.2-7.652-3.024-16.2-1.512-16.654S905.734,393.775,905.734,393.775Z" transform="translate(-569.901 -293.809)" fill="#231f20" opacity="0.2"/>
    <path id="Path_392" data-name="Path 392" d="M912.7,518.1s1.771,49.241,4.794,55.543c2.519,5.249,3.988,22.365,4.409,27.937.084,1.117.127,1.77.127,1.77s8.063,0,8.567-1.8,2.016-21.605,0-27.907,2.872-52.893,2.872-52.893Z" transform="translate(-605.164 -371.066)" fill="#2f2e41"/>
    <path id="Path_393" data-name="Path 393" d="M912.835,736.309s-5.039,1.35-6.047,3.151-17.638,4.951-12.6,7.2,20.157-1.8,20.157-1.8,8.063-.45,7.559-3.151a24.9,24.9,0,0,0-2.339-6.028Z" transform="translate(-593.951 -506.278)" fill="#2f2e41"/>
    <path id="Path_394" data-name="Path 394" d="M946.125,740.109s-5.039,1.35-6.047,3.151-17.638,4.951-12.6,7.2,20.157-1.8,20.157-1.8,8.063-.45,7.559-3.151a24.9,24.9,0,0,0-2.339-6.028Z" transform="translate(-613.131 -508.639)" fill="#2f2e41"/>
    <path id="Path_395" data-name="Path 395" d="M922.824,519.162l7.055,10.8,11.774,37.559s-1.192,34.459.32,34.459,9.575,2.251,10.079,0c.426-1.9,6.07-20.112,3.256-32.233a139.446,139.446,0,0,1-3.521-23.254l-1.247-21.031s5.039-8.1-.5-9.452S922.824,519.162,922.824,519.162Z" transform="translate(-610.996 -369.613)" fill="#2f2e41"/>
    <ellipse id="Ellipse_85" data-name="Ellipse 85" cx="12.094" cy="10.803" rx="12.094" ry="10.803" transform="translate(306.285 58.627)" fill="#ffb8b8"/>
    <path id="Path_396" data-name="Path 396" d="M934.714,325.49s2.016,14.4,1.512,15.3,12.094-9.9,12.094-9.9-4.535-6.3-3.528-9.452Z" transform="translate(-617.846 -248.858)" fill="#ffb8b8"/>
    <path id="Path_397" data-name="Path 397" d="M948.554,352.453s-14.11-9-14.614-10.8l-10.583,8.1-1.8-1.912s-8.28,7.313-8.28,10.464-.5,12.6,1.008,15.3-4.535,36.909-4.535,36.909,5.039,4.051,5.543,4.5,20.661-2.7,20.661-2.7,10.079-.9,10.079-2.251-3.024-21.605-2.016-27.007S948.554,352.453,948.554,352.453Z" transform="translate(-603.464 -261.417)" fill="#575a89"/>
    <path id="Path_398" data-name="Path 398" d="M914.022,284.848a9.468,9.468,0,0,1,5.163-.36c2.386.617,4.038,2.485,5.82,4.03s4.281,2.914,6.628,2.188a3.2,3.2,0,0,1,.742-2.563,2.325,2.325,0,0,0,.659-.98c.1-.579-.445-1.078-.608-1.645-.286-.994.5-2.354-.466-2.911-.255-.147-.577-.181-.826-.336-.975-.609.108-2.123-.537-3.017a2.025,2.025,0,0,0-.733-.546c-4.676-2.437-10.395-2.444-15.808-2.382-.754.009-1.8.343-1.59.989-1.023-.656-2.363.265-3.187,1.115l-1.688,1.74a13.619,13.619,0,0,0-2.063,2.492c-.516.881-.63,2.235.4,2.619-.763-.285-1.688,3.751,1.829,3.087C909.8,287.982,911.8,285.554,914.022,284.848Z" transform="translate(-600.809 -220.814)" fill="#2f2e41"/>
    <rect id="Rectangle_261" data-name="Rectangle 261" width="277.934" height="123.671" transform="translate(24.089 24.909)" fill="#fff"/>
    <rect id="Rectangle_262" data-name="Rectangle 262" width="60.746" height="47.389" transform="translate(40.869 43.084)" fill="#e6e6e6"/>
    <rect id="Rectangle_263" data-name="Rectangle 263" width="60.564" height="47.246" transform="translate(132.96 43.226)" fill="#e6e6e6"/>
    <rect id="Rectangle_264" data-name="Rectangle 264" width="61.158" height="47.71" transform="translate(224.086 42.763)" fill="#e6e6e6"/>
    <rect id="Rectangle_265" data-name="Rectangle 265" width="59.413" height="4.902" transform="translate(40.869 111.158)" fill="#e6e6e6"/>
    <rect id="Rectangle_266" data-name="Rectangle 266" width="29.768" height="4.902" transform="translate(40.869 119.788)" fill="#b881fc"/>
    <rect id="Rectangle_267" data-name="Rectangle 267" width="59.413" height="4.902" transform="translate(133.95 111.158)" fill="#e6e6e6"/>
    <rect id="Rectangle_268" data-name="Rectangle 268" width="29.768" height="4.902" transform="translate(133.95 119.788)" fill="#b881fc"/>
    <rect id="Rectangle_269" data-name="Rectangle 269" width="59.413" height="4.902" transform="translate(224.705 111.158)" fill="#e6e6e6"/>
    <rect id="Rectangle_270" data-name="Rectangle 270" width="29.768" height="4.902" transform="translate(224.705 119.788)" fill="#b881fc"/>
    <ellipse id="Ellipse_86" data-name="Ellipse 86" cx="2.805" cy="2.505" rx="2.805" ry="2.505" transform="translate(149.605 98.294)" fill="#b881fc"/>
    <ellipse id="Ellipse_87" data-name="Ellipse 87" cx="2.805" cy="2.505" rx="2.805" ry="2.505" transform="translate(160.252 98.294)" fill="#e6e6e6"/>
    <ellipse id="Ellipse_88" data-name="Ellipse 88" cx="2.805" cy="2.505" rx="2.805" ry="2.505" transform="translate(170.898 98.294)" fill="#e6e6e6"/>
    <ellipse id="Ellipse_89" data-name="Ellipse 89" cx="2.805" cy="2.505" rx="2.805" ry="2.505" transform="translate(57.791 98.294)" fill="#b881fc"/>
    <ellipse id="Ellipse_90" data-name="Ellipse 90" cx="2.805" cy="2.505" rx="2.805" ry="2.505" transform="translate(68.438 98.294)" fill="#b881fc"/>
    <ellipse id="Ellipse_91" data-name="Ellipse 91" cx="2.805" cy="2.505" rx="2.805" ry="2.505" transform="translate(79.084 98.294)" fill="#e6e6e6"/>
    <ellipse id="Ellipse_92" data-name="Ellipse 92" cx="2.805" cy="2.505" rx="2.805" ry="2.505" transform="translate(243.684 98.294)" fill="#b881fc"/>
    <ellipse id="Ellipse_93" data-name="Ellipse 93" cx="2.805" cy="2.505" rx="2.805" ry="2.505" transform="translate(254.33 98.294)" fill="#b881fc"/>
    <ellipse id="Ellipse_94" data-name="Ellipse 94" cx="2.805" cy="2.505" rx="2.805" ry="2.505" transform="translate(264.976 98.294)" fill="#b881fc"/>
    <path id="Path_399" data-name="Path 399" d="M766.82,269c-8.588,0-15.549,6.218-15.549,13.889s6.962,13.889,15.549,13.889,15.549-6.218,15.549-13.889C782.344,275.228,775.4,269.023,766.82,269Z" transform="translate(-512.155 -216.272)" fill="#b881fc"/>
    <path id="Path_400" data-name="Path 400" d="M551.123,269.613c-8.588,0-15.549,6.218-15.549,13.889s6.962,13.889,15.549,13.889,15.549-6.218,15.549-13.889C566.647,275.84,559.7,269.635,551.123,269.613Z" transform="translate(-387.881 -216.652)" fill="#b881fc"/>
    <path id="Path_401" data-name="Path 401" d="M334.064,269.425c-8.588,0-15.549,6.218-15.549,13.889s6.962,13.889,15.549,13.889,15.549-6.218,15.549-13.889C349.588,275.652,342.641,269.447,334.064,269.425Z" transform="translate(-262.822 -216.535)" fill="#b881fc"/>
    <path id="Path_402" data-name="Path 402" d="M934.7,403.476s2.52,29.257-1.008,30.157-16.126,7.652-36.283,5.851c0,0-19.654,9.452-16.63.45s16.63-6.752,16.63-6.752,24.189-4.5,25.2-7.652-3.024-16.2-1.512-16.654S934.7,403.476,934.7,403.476Z" transform="translate(-586.591 -299.838)" fill="#ffb8b8"/>
    <path id="Path_403" data-name="Path 403" d="M976.107,371.085l8.063-.9s8.063,13.953,3.528,16.2-16.126,4.051-16.126,3.151S976.107,371.085,976.107,371.085Z" transform="translate(-639.082 -279.15)" fill="#575a89"/>
  </g>
</svg>
